…
strataComplRates

\#\# \# A tibble: 48 x 8
\#\# \# Groups:   month, strata, anglerType, speciesCaught \[16\]
\#\#    month strata  anglerType speciesCaught   catchType     k     rate     varRate
\#\#    \<chr\> \<chr\>   \<chr\>      \<chr\>           \<chr\>     \<int\>    \<dbl\>       \<dbl\>
\#\#  1 Jun   weekday Bank       Yellow Perch    C             2 0.225    0.00565
\#\#  2 Jun   weekday Bank       Yellow Perch    H             2 0        0
\#\#  3 Jun   weekday Bank       Yellow Perch    R             2 0.225    0.00565
\#\#  4 Jun   weekday Boat       Channel Catfish C             3 0.0175   0.000210
\#\#  5 Jun   weekday Boat       Channel Catfish H             3 0.0103   0.0000924
\#\#  6 Jun   weekday Boat       Channel Catfish R             3 0.00722  0.0000272
\#\#  7 Jun   weekday Boat       Freshwater Drum C            15 0.00586  0.00000254
\#\#  8 Jun   weekday Boat       Freshwater Drum H            15 0.000960 0.000000406
\#\#  9 Jun   weekday Boat       Freshwater Drum R            15 0.00490  0.00000263
\#\# 10 Jun   weekday Boat       Walleye         C            26 0.0145   0.0000136
\#\# \# … with 38 more rows
…
strataIncomplRates

\#\# \# A tibble: 27 x 8
\#\# \# Groups:   month, strata, anglerType, speciesCaught \[9\]
\#\#    month strata  anglerType speciesCaught   catchType     k meanRate varRate
\#\#    \<chr\> \<chr\>   \<chr\>      \<chr\>           \<chr\>     \<int\>    \<dbl\>   \<dbl\>
\#\#  1 Jun   weekday Bank       Channel Catfish C             2   0.110  0.00190
\#\#  2 Jun   weekday Bank       Channel Catfish H             2   0.110  0.00190
\#\#  3 Jun   weekday Bank       Channel Catfish R             2   0      0
\#\#  4 Jun   weekday Bank       Freshwater Drum C             6   0.429  0.0152
\#\#  5 Jun   weekday Bank       Freshwater Drum H             6   0.0778 0.00309
\#\#  6 Jun   weekday Bank       Freshwater Drum R             6   0.352  0.0224
\#\#  7 Jun   weekday Bank       Walleye         C             1   0.299  0
\#\#  8 Jun   weekday Bank       Walleye         H             1   0      0
\#\#  9 Jun   weekday Bank       Walleye         R             1   0.299  0
\#\# 10 Jun   weekday Bank       White Bass      C             2   0.803  0.281
\#\# \# … with 17 more rows
…
